{
    "prepare_queue": {
        "installed": [],
        "uninstalled": []
    },
    "config_munge": {
        "files": {}
    },
    "installed_plugins": {
        "cordova-plugin-console": {
            "PACKAGE_NAME": "com.ionicframework.soeapp213360"
        },
        "cordova-plugin-device": {
            "PACKAGE_NAME": "com.ionicframework.soeapp213360"
        },
        "cordova-plugin-splashscreen": {
            "PACKAGE_NAME": "com.ionicframework.soeapp213360"
        },
        "cordova-plugin-statusbar": {
            "PACKAGE_NAME": "com.ionicframework.soeapp213360"
        },
        "cordova-plugin-whitelist": {
            "PACKAGE_NAME": "com.ionicframework.soeapp213360"
        },
        "de.appplant.cordova.plugin.local-notification": {
            "PACKAGE_NAME": "com.ionicframework.soeapp213360"
        },
        "ionic-plugin-keyboard": {
            "PACKAGE_NAME": "com.ionicframework.soeapp213360"
        },
        "phonegap-plugin-push": {
            "SENDER_ID": "85075801930",
            "PACKAGE_NAME": "com.ionicframework.soeapp213360"
        }
    },
    "dependent_plugins": {
        "cordova-plugin-app-event": {
            "PACKAGE_NAME": "com.ionicframework.soeapp213360"
        }
    }
}